[
  {
    "name": "P200",
    "description": "p200 micropipette adapter, configured as tool 3 (T3 / extruder3).",
    "type": "Micropipette",
    "parameters": {
      "channels": 1,
      "can_probe": false,
      "can_eject": true,
      "tip_map": {
        "200 uL Tip": "p200",
        "200 uL Tip Tarsons": "p200"
      },
      "tip_stages": {
        "default": "p200",
        "p200": {
          "vol_max": 200,
          "flowrate": 100,
          "z_offset": 0,
          "z_offset.description": "Distance at which the stip stage begins, relative to the end of the tip holder.",
          "tip_fit_distance": {
            "200 uL Tip": 4.8,
            "200 uL Tip Tarsons": 4.3
          },
          "tip_fit_distance.description": "Fitting depth for each tip definition in the containers database.",
          "probe_extra_dist": 1,
          "tip_ejector": {
            "e_start": 22,
            "e_end": 27,
            "eject_feedrate": 200
          },
          "tension_correction": {
            "start_vol": 20,
            "max_correction": 2
          }
        }
      },
      "vol_max": 180,
      "scaler": 12.566370614359172,
      "shaft_diameter": 4,
      "scaler_expr": "pi*((4/2)**2)",
      "scaler_adjust": 1,
      "feedrate": 15.915494309189533,
      "tip_fit_feedrate": 300,
      "backlash_compensation_volume.DEPRECATED": 0.1,
      "backlash_correction": 0.1,
      "extra_draw_volume": 8,
      "back_pour_correction": 4,
      "under_draw_correction": 4,
      "current_volume": 0,
      "activate": [
        "T3; activate tool."
      ],
      "deactivate": [
        "; dummy deactivate."
      ],
      "homing": {
        "commands": [
          "T3",
          "HOME_EXTRUDER EXTRUDER=extruder3",
          "G90",
          "M82",
          "G1 E6 F6000; Move until the actuator touches the plunger."
        ],
        "commands.desc": "Homing commands, leaving the pipette at the maximum volume.",
        "travel_distance": 16,
        "travel_distance.desc": "Free travel distance after homing, to the lowest volume position."
      },
      "tool_offset": {
        "x": -0.5,
        "y": 18,
        "z": 134.5
      },
      "clearance": {
        "safe_y": 56,
        "safe_x": 82,
        "safe_y_parked": 50,
        "safe_y_post": 50
      },
      "tool_post": {
        "x": 375.5,
        "y": 44.5,
        "z": 166,
        "y_docking_closeup": 1,
        "z_docking_offset": 0,
        "y_parking_closeup": 4.5,
        "z_parking_offset": 0,
        "feedrate": 500
      },
      "docking_commands": [
        "T0",
        "ENGAGE",
        "LOCK"
      ],
      "parking_commands": [
        "T0",
        "RELEASE",
        "CLEAR"
      ],
      "docking_commands.old": [
        "T0",
        "G91",
        "M83",
        "G1 Y-2.0 E-2.0 F100",
        "G1 Y-1.0 E-4.0 F50",
        "G1 E-3.0 F50"
      ],
      "parking_commands.old": [
        "T0",
        "G91",
        "M83",
        "G1 Y4 E8 F50",
        "G1 Y1 E1 F50",
        "G1 Y5 F500"
      ],
      "state": {
        "s": 0,
        "vol": 0,
        "tip_vol": 0,
        "lastdir": "",
        "x": "",
        "y": "",
        "z": "",
        "platform": "",
        "tube": "",
        "paused": false,
        "alarm": false
      }
    },
    "platforms": [],
    "platformTypes": [],
    "stepTypes": [],
    "enabled": true
  },
  {
    "name": "PMULTI",
    "description": "pMULTI micropipette, configured as tool 2 (T2 / extruder2).",
    "type": "Micropipette",
    "parameters": {
      "channels": 1,
      "vol_max": 1000,
      "shaft_diameter": 6,
      "scaler": 28.274333882308138,
      "scaler_expr": "pi*((6/2)**2)",
      "scaler_adjust": 1.015,
      "feedrate": 15.915494309189533,
      "tip_fit_feedrate": 300,
      "activate": [
        "T2; activate tool."
      ],
      "deactivate": [
        "; dummy deactivate."
      ],
      "homing": {
        "commands": [
          "T2",
          "HOME_EXTRUDER EXTRUDER=extruder2",
          "G90",
          "M82",
          "G1 E0 F6000; Total free motion minus 'travel_distance' below."
        ],
        "commands.desc": "Homing commands, positioning the pipette at its maximum volume.",
        "travel_distance": 34,
        "travel_distance.desc": "Free travel distance after homing, to the lowest volume position."
      },
      "tool_offset": {
        "x": -0.2,
        "y": 20.5,
        "z": 82.7
      },
      "clearance": {
        "safe_y": 61,
        "safe_x": 82,
        "safe_y_parked": 50,
        "safe_y_post": 50
      },
      "tool_post": {
        "x": 18.5,
        "y": 31.5,
        "z": 230.8,
        "y_docking_closeup": 1,
        "z_docking_offset": 0,
        "y_parking_closeup": 3,
        "z_parking_offset": 0,
        "feedrate": 500
      },
      "docking_commands": [
        "T0",
        "G91",
        "M83",
        "G1 Y-1.0 E-1.0 F100",
        "G1 Y-1.0 E-3.0 F50",
        "G1 E-2.0 F50"
      ],
      "parking_commands": [
        "T0",
        "G91",
        "M83",
        "G1 Y4 E6 F100",
        "G1 Y5 F500"
      ],
      "current_volume": 0,
      "state": {
        "s": 0,
        "vol": 0,
        "tip_vol": 0,
        "lastdir": "",
        "x": "",
        "y": "",
        "z": "",
        "platform": "",
        "tube": "",
        "paused": false,
        "alarm": false
      },
      "backlash_compensation_volume.DEPRECATED": 0.1,
      "extra_draw_volume": 2,
      "extra_draw_volume.bkp": 8,
      "backlash_correction": 12.31,
      "backlash_correction_prev": [
        5.65,
        11.31
      ],
      "backlash_distance": 0.4,
      "tip_priming_correction": false,
      "tip_priming_correction.desc": "Pre-wet new tips by action volume 120%.",
      "back_pour_correction": 0,
      "back_pour_correction.desc": "Draw and pour this amount after aspirating. Calibrated value: 16",
      "under_draw_correction": 0,
      "under_draw_correction.desc": "Over-draw this amount when aspirating. Calibrated value: 1",
      "capillary_correction": false,
      "can_probe": false,
      "can_eject": false,
      "tip_map": {
        "20 uL Tip": "p20",
        "200 uL Tip": "p200",
        "200 uL Tip Tarsons": "p200",
        "1000 uL Tip": "p1000"
      },
      "tip_map.description": "Map of tip containers to tip holder stages.",
      "tip_stages": {
        "default": "p1000",
        "p200": {
          "vol_max": 200,
          "flowrate": 100,
          "z_offset": 5,
          "z_offset.description": "Distance at which the stip stage begins, relative to the end of the tip holder.",
          "tip_fit_distance": {
            "200 uL Tip": 3.6,
            "200 uL Tip Tarsons": 3.7
          },
          "tip_fit_distance.description": "Fitting depth for each tip definition in the containers database. Defined as the total fitting depth (measured physically) minus the tip-stage's z_offset (from schematics).",
          "probe_extra_dist": 1.3,
          "probe_extra_dist_old": 2.7,
          "probe_extra_dist.description": "Fit beyond the ideal depth to apply pressure. This must not add to the final (physical) fitting depth. (2.7 + 0.5)",
          "eject_post": {
            "post_x": 237.4,
            "post_y": 48,
            "post_z_pre": 188,
            "post_z": 191,
            "eject_feed_rate": 600
          },
          "tension_correction": {
            "start_vol": 20,
            "max_correction": 0.6,
            "max_correction.desc": "Originally 1, lowered to 0.6."
          }
        },
        "p20": {
          "vol_max": 20,
          "flowrate": 10,
          "z_offset": 0,
          "z_offset.description": "Distance at which the stip stage begins, relative to the end of the tip holder.",
          "tip_fit_distance": {
            "20 uL Tip": 1
          },
          "tip_fit_distance.description": "Fitting depth for each tip definition in the containers database.",
          "probe_extra_dist": 1,
          "eject_post": {
            "post_x": 251.5,
            "post_y": 52,
            "post_z_pre": 195.8,
            "post_z": 198,
            "eject_feed_rate": 600
          },
          "tension_correction": {
            "start_vol": 2,
            "max_correction": 0.2
          }
        },
        "p1000": {
          "vol_max": 1000,
          "flowrate": 500,
          "z_offset": 5,
          "z_offset.description": "Distance at which the stip stage begins, relative to the end of the tip holder.",
          "tip_fit_distance": {
            "1000 uL Tip": 10
          },
          "tip_fit_distance.description": "Fitting depth for each tip definition in the containers database.",
          "probe_extra_dist": 1,
          "eject_post": {
            "post_x": 269,
            "post_y": 49.5,
            "post_z_pre": 179.5,
            "post_z": 184.5,
            "eject_feed_rate": 600
          },
          "tension_correction": {
            "start_vol": 20,
            "max_correction": 2
          }
        }
      }
    },
    "platforms": [],
    "platformTypes": [],
    "stepTypes": [],
    "enabled": true
  },
  {
    "name": "Dummy",
    "description": "A dummy tool. Using the \"Camera\" type.",
    "type": "Camera",
    "parameters": {
      "device": "/dev/video0",
      "driver": "dummy",
      "homing": {
        "commands": [
          "DUMMY_HOME_T1"
        ],
        "retraction_displacement": 20
      },
      "tool_offset": {
        "x": 2,
        "y": 3.25,
        "z": 9.8
      },
      "clearance": {
        "safe_y": 10,
        "safe_x": 10,
        "safe_y_parked": 0,
        "safe_y_post": 0
      },
      "tool_post": {
        "x": 16.5,
        "y": 280,
        "z": 19,
        "y_docking_closeup": 2,
        "z_docking_offset": 0,
        "y_parking_closeup": 4,
        "z_parking_offset": 1,
        "feedrate": 500
      },
      "docking_commands": [
        "G91; Relative Y",
        "M83; Relative E",
        "G1 Y2.0 E-1.0 F100",
        "G1 Y1.0 E-5.0 F25"
      ],
      "parking_commands": [
        "; Hang the pipette.",
        "G90; Absolute Y.",
        "G1 Y250",
        "M83; Relative E.",
        "G91; Relative Y.",
        "; Unlock (Reverse lock movements).",
        "G1 E1.0 F100; Backlash compensation.",
        "G1 Y-4.0 E6.99 F100"
      ]
    },
    "platforms": [],
    "platformTypes": [],
    "stepTypes": [],
    "enabled": false
  },
  {
    "name": "PMULTI-OTM",
    "description": "pMULTI micropipette, configured as tool 1 (T1 / extruder1).",
    "type": "Micropipette",
    "parameters": {
      "channels": 1,
      "vol_max": 1000,
      "shaft_diameter": 6,
      "scaler": 28.274333882308138,
      "scaler_expr": "pi*((6/2)**2)",
      "scaler_adjust": 1,
      "feedrate": 15.915494309189533,
      "tip_fit_feedrate": 300,
      "activate": [
        "T1; activate tool."
      ],
      "deactivate": [
        "; dummy deactivate."
      ],
      "homing": {
        "commands": [
          "T1",
          "HOME_EXTRUDER EXTRUDER=extruder1",
          "G90",
          "M82",
          "G1 E0 F6000; Move until the actuator touches the plunger."
        ],
        "commands.desc": "Homing commands, leaving the pipette at the maximum volume.",
        "travel_distance": 38,
        "travel_distance.desc": "Free travel distance after homing, to the lowest volume position."
      },
      "tool_offset": {
        "x": -0.8,
        "y": 20,
        "z": 84.2,
        "z.desc": "Previously 83.8"
      },
      "clearance": {
        "safe_y": 61,
        "safe_x": 82,
        "safe_y_parked": 60,
        "safe_y_post": 50
      },
      "tool_post": {
        "x": 474.5,
        "y": 45,
        "z": 196.5,
        "y_docking_closeup": 1,
        "z_docking_offset": 0,
        "y_parking_closeup": 6,
        "z_parking_offset": 0,
        "feedrate": 500
      },
      "docking_commands": [
        "T0",
        "ENGAGE",
        "LOCK"
      ],
      "parking_commands": [
        "T0",
        "RELEASE",
        "CLEAR"
      ],
      "current_volume": 0,
      "state": {
        "s": 0,
        "vol": 0,
        "tip_vol": 0,
        "lastdir": "",
        "x": "",
        "y": "",
        "z": "",
        "platform": "",
        "tube": "",
        "paused": false,
        "alarm": false
      },
      "backlash_compensation_volume.DEPRECATED": 0.1,
      "backlash_correction": 0.1,
      "backlash_correction.desc": "Deshabilitado porque le puse un resorte. No se si anda bien igual.",
      "extra_draw_volume": 8,
      "tip_priming_correction": false,
      "back_pour_correction": 0,
      "under_draw_correction": 0,
      "under_draw_correction.desc": "5+11(-1): Pipetea en total aprox. 11 uL de menos segun la p200 manual, a 200 uL total.",
      "capillary_correction": true,
      "can_probe": false,
      "can_eject": false,
      "tip_map": {
        "20 uL Tip": "p20",
        "200 uL Tip": "p200",
        "200 uL Tip Tarsons": "p200",
        "1000 uL Tip": "p1000"
      },
      "tip_map.description": "Map of tip containers to tip holder stages.",
      "tip_stages": {
        "default": "p1000",
        "p200": {
          "vol_max": 220,
          "flowrate": 100,
          "z_offset": 5,
          "z_offset.description": "Distance at which the stip stage begins, relative to the end of the tip holder.",
          "tip_fit_distance": {
            "200 uL Tip": 3.6,
            "200 uL Tip Tarsons": 4.1
          },
          "tip_fit_distance.description": "Fitting depth for each tip definition in the containers database.",
          "probe_extra_dist": 2.7,
          "probe_extra_dist.description": "Fit beyond the ideal depth to apply pressure. This must not add to the final (physical) fitting depth.",
          "eject_post": {
            "eject_feed_rate": 600,
            "post_x": 236,
            "post_y": 52,
            "post_z": 191,
            "post_z_pre": 188.75
          },
          "tension_correction": {
            "start_vol": 20,
            "max_correction": 0
          }
        },
        "p20": {
          "vol_max": 20,
          "flowrate": 10,
          "z_offset": 0,
          "z_offset.description": "Distance at which the stip stage begins, relative to the end of the tip holder.",
          "tip_fit_distance": {
            "20 uL Tip": 3
          },
          "tip_fit_distance.description": "Fitting depth for each tip definition in the containers database.",
          "probe_extra_dist": 1,
          "eject_post": {
            "eject_feed_rate": 600,
            "post_x": 251.5,
            "post_y": 52,
            "post_z": 198,
            "post_z_pre": 195.8
          },
          "tension_correction": {
            "start_vol": 2,
            "max_correction": 0.2
          }
        },
        "p1000": {
          "vol_max": 1000,
          "flowrate": 500,
          "z_offset": 5,
          "z_offset.description": "Distance at which the stip stage begins, relative to the end of the tip holder.",
          "tip_fit_distance": {
            "1000 uL Tip": 10
          },
          "tip_fit_distance.description": "Fitting depth for each tip definition in the containers database.",
          "probe_extra_dist": 1,
          "eject_post": {
            "post_x": 269,
            "post_y": 49.5,
            "post_z_pre": 179.5,
            "post_z": 184.5,
            "eject_feed_rate": 600
          },
          "tension_correction": {
            "start_vol": 20,
            "max_correction": 2
          }
        }
      }
    },
    "platforms": [],
    "platformTypes": [],
    "stepTypes": [],
    "enabled": true
  },
  {
    "name": "Webcam",
    "enabled": true,
    "description": "Cheap-o USB webcam microscope.",
    "type": "Dummy",
    "platforms": [],
    "platformTypes": [],
    "stepTypes": [],
    "parameters": {
      "activate": [
        "; Activate tool."
      ],
      "deactivate": [
        "; Dummy deactivate."
      ],
      "homing": {
        "commands": [
          "; Dummy home."
        ]
      },
      "tool_offset": {
        "x": -0.2,
        "y": 20.5,
        "z": 84.1
      },
      "clearance": {
        "safe_y": 61,
        "safe_x": 82,
        "safe_y_parked": 60,
        "safe_y_post": 60
      },
      "tool_post": {
        "x": 376.5,
        "y": 50,
        "z": 178,
        "y_docking_closeup": 1,
        "z_docking_offset": 0,
        "y_parking_closeup": 3,
        "z_parking_offset": 0,
        "feedrate": 500
      },
      "docking_commands": [
        "T0",
        "ENGAGE",
        "LOCK"
      ],
      "parking_commands": [
        "T0",
        "RELEASE",
        "CLEAR"
      ]
    }
  }
]
